<?xml version="1.0" encoding="utf-8"?>
<!-- Svg Vector Icons : http://www.onlinewebfonts.com/icon -->
<!DOCTYPE svg PUBLIC "-//W3C//DTD SVG 1.1//EN" "http://www.w3.org/Graphics/SVG/1.1/DTD/svg11.dtd">
<svg version="1.1" xmlns="http://www.w3.org/2000/svg" xmlns:xlink="http://www.w3.org/1999/xlink" x="0px" y="0px" viewBox="0 0 1000 1000" enable-background="new 0 0 1000 1000" xml:space="preserve">
<metadata> Svg Vector Icons : http://www.onlinewebfonts.com/icon </metadata>
<g><path d="M867.5,153.6h-735C64.9,153.6,10,208.4,10,276.1v447.9c0,67.6,54.9,122.5,122.5,122.5h735c67.6,0,122.5-54.9,122.5-122.5V276.1C990,208.4,935.1,153.6,867.5,153.6L867.5,153.6z M928.8,723.9c0,33.9-27.4,61.2-61.2,61.2h-735c-33.8,0-61.2-27.4-61.2-61.2V276.1c0-33.8,27.4-61.2,61.2-61.2h735c33.9,0,61.2,27.4,61.2,61.2V723.9L928.8,723.9z"/></g>
</svg>