<?xml version="1.0" encoding="utf-8"?>
<!-- Svg Vector Icons : http://www.onlinewebfonts.com/icon -->
<!DOCTYPE svg PUBLIC "-//W3C//DTD SVG 1.1//EN" "http://www.w3.org/Graphics/SVG/1.1/DTD/svg11.dtd">
<svg version="1.1" xmlns="http://www.w3.org/2000/svg" xmlns:xlink="http://www.w3.org/1999/xlink" x="0px" y="0px" viewBox="0 0 1000 1000" enable-background="new 0 0 1000 1000" xml:space="preserve">
<metadata> Svg Vector Icons : http://www.onlinewebfonts.com/icon </metadata>
<g><g><path d="M882.4,621.6C882.4,824.7,717.1,990,514,990H383.6c-21.6,0-39.1-17.5-39.1-39.1v-13c0-21.6,17.5-39.1,39.1-39.1H514c152.8,0,277.1-124.3,277.1-277.1c0-152.8-124.3-277.1-277.1-277.1H273.4l165.7,165.7c17.8,17.8,17.8,46.8,0,64.5c-17.3,17.3-47.3,17.2-64.6,0L131,331.1c-8.6-8.6-13.4-20.1-13.4-32.3c0-12.2,4.8-23.7,13.4-32.3L374.6,22.9c17.2-17.2,47.3-17.2,64.5,0c17.8,17.8,17.8,46.8,0,64.5L273.4,253.2H514C717.1,253.2,882.4,418.5,882.4,621.6z"/></g><g></g><g></g><g></g><g></g><g></g><g></g><g></g><g></g><g></g><g></g><g></g><g></g><g></g><g></g><g></g></g>
</svg>